cognitivemapr Tutorial • cognitivemapr
…
result_list <- cognitivemapr::evaluate_concepts(rutte_p2_edgelist, rutte_p2_nodelist)

#test of the current solution to running multiple iterations of the evaluate_concepts function:
#result_list[[1]][[2]][,"val_run1"]
#result_list[[2]][[2]][,"val_run1.y"]
#result_list[[3]][[2]][,"val_run1.x"]
#result_list[[4]][[2]][,"val_run1.x.x"]
#result_list[[5]][[2]][,"val_run1.y.y"]

result_list[[1]][[2]]
#> # A tibble: 84 × 7
#>       id node_name                    paradigms int   value instruments val_run1
#>    <dbl> <chr>                        <chr>     <chr> <dbl> <chr>          <dbl>
#>  1     8 60% debt ratio               Ordolibe… NA        1 NA                 1
#>  2    21 Attractiveness to business   NA        NA        1 NA                 1
#>  3    25 Automatic sanctions          Ordolibe… Supr…     1 Stronger E…        1
#>  4    39 benefit of all               NA        NA        1 NA                 1
#>  5    40 Benefit of debt-states       NA        Inte…     1 NA                 1
#>  6    48 Benefit of the people        NA        NA        1 NA                 1
#>  7    76 Common market                NA        Supr…     1 NA                 1
#>  8    80 Compliance                   NA        NA        1 NA                 1
#>  9    81 Compliance with SGP norms    Ordolibe… Inte…     1 NA                 0
#> 10    85 conditional financial assis… Ordolibe… Inte…     1 Fiscal Sup…        1
#> # ℹ 74 more rows
result_list[[2]][[2]]
#> # A tibble: 84 × 7
#>       id node_name                    paradigms int   value instruments val_run1
#>    <dbl> <chr>                        <chr>     <chr> <dbl> <chr>          <dbl>
#>  1     8 60% debt ratio               Ordolibe… NA        1 NA                 0
#>  2    21 Attractiveness to business   NA        NA        1 NA                 1
#>  3    25 Automatic sanctions          Ordolibe… Supr…     1 Stronger E…        1
#>  4    39 benefit of all               NA        NA        1 NA                 1
#>  5    40 Benefit of debt-states       NA        Inte…     1 NA                 1
#>  6    48 Benefit of the people        NA        NA        1 NA                 1
#>  7    76 Common market                NA        Supr…     1 NA                 1
#>  8    80 Compliance                   NA        NA        1 NA                 1
#>  9    81 Compliance with SGP norms    Ordolibe… Inte…     1 NA                 0
#> 10    85 conditional financial assis… Ordolibe… Inte…     1 Fiscal Sup…        1
#> # ℹ 74 more rows
result_list[[3]][[2]]
#> # A tibble: 84 × 7
#>       id node_name                    paradigms int   value instruments val_run1
#>    <dbl> <chr>                        <chr>     <chr> <dbl> <chr>          <dbl>
#>  1     8 60% debt ratio               Ordolibe… NA        1 NA                 0
#>  2    21 Attractiveness to business   NA        NA        1 NA                 1
#>  3    25 Automatic sanctions          Ordolibe… Supr…     1 Stronger E…        1
#>  4    39 benefit of all               NA        NA        1 NA                 1
#>  5    40 Benefit of debt-states       NA        Inte…     1 NA                 1
#>  6    48 Benefit of the people        NA        NA        1 NA                 1
#>  7    76 Common market                NA        Supr…     1 NA                 1
#>  8    80 Compliance                   NA        NA        1 NA                 1
#>  9    81 Compliance with SGP norms    Ordolibe… Inte…     1 NA                 0
#> 10    85 conditional financial assis… Ordolibe… Inte…     1 Fiscal Sup…        1
#> # ℹ 74 more rows
result_list[[4]][[2]]
#> # A tibble: 84 × 7
#>       id node_name                    paradigms int   value instruments val_run1
#>    <dbl> <chr>                        <chr>     <chr> <dbl> <chr>          <dbl>
#>  1     8 60% debt ratio               Ordolibe… NA        1 NA                 0
#>  2    21 Attractiveness to business   NA        NA        1 NA                 1
#>  3    25 Automatic sanctions          Ordolibe… Supr…     1 Stronger E…        1
#>  4    39 benefit of all               NA        NA        1 NA                 1
#>  5    40 Benefit of debt-states       NA        Inte…     1 NA                 1
#>  6    48 Benefit of the people        NA        NA        1 NA                 1
#>  7    76 Common market                NA        Supr…     1 NA                 1
#>  8    80 Compliance                   NA        NA        1 NA                 1
#>  9    81 Compliance with SGP norms    Ordolibe… Inte…     1 NA                 0
#> 10    85 conditional financial assis… Ordolibe… Inte…     1 Fiscal Sup…        1
#> # ℹ 74 more rows
result_list[[5]][[2]]
#> # A tibble: 84 × 7
#>       id node_name                    paradigms int   value instruments val_run1
#>    <dbl> <chr>                        <chr>     <chr> <dbl> <chr>          <dbl>
#>  1     8 60% debt ratio               Ordolibe… NA        1 NA                 0
#>  2    21 Attractiveness to business   NA        NA        1 NA                 1
#>  3    25 Automatic sanctions          Ordolibe… Supr…     1 Stronger E…        1
#>  4    39 benefit of all               NA        NA        1 NA                 1
#>  5    40 Benefit of debt-states       NA        Inte…     1 NA                 1
#>  6    48 Benefit of the people        NA        NA        1 NA                 1
#>  7    76 Common market                NA        Supr…     1 NA                 1
#>  8    80 Compliance                   NA        NA        1 NA                 1
#>  9    81 Compliance with SGP norms    Ordolibe… Inte…     1 NA                 0
#> 10    85 conditional financial assis… Ordolibe… Inte…     1 Fiscal Sup…        1
#> # ℹ 74 more rows
…
